{
  "$schema": "http://json-schema.org/draft-07/schema#",
  "type": "object",
  "properties": {
    "id": {
      "type": "string",
      "format": "uri"
    },
    "type": {
      "type": "string",
      "enum": [
        "follow",
        "undo_follow",
        "like",
        "undo_like",
        "announce",
        "undo_announce",
        "create_note",
        "create_note_image",
        "create_note_mention",
        "create_note_hashtag",
        "update_note",
        "delete_tombstone"
      ]
    },
    "url": {
      "type": "string",
      "format": "uri"
    },
    "tag": {
      "type": "string"
    }
  },
  "required": [
    "id"
  ]
}
